{

  "manifest_version": 2,
  "name": "Popupblocker",
  "author": "Joofthan",
  "version": "2.1.4",

  "description": "This add-on can block every popup. Many websites open new windows with ads, when you try to mark text or click something.",
  
  "options_ui": {
    "page": "resources/blackwhitelist.html",
    "browser_style": true
  },
  
  "icons": {
    "38": "resources/icons/icon-38.png",
    "40": "resources/icons/icon-40.png",
    "96": "resources/icons/icon-96.png"
  },
  
  "background": {
    "scripts": [
      "main/js/bundle.js",
      "main/js/script.js"],
    "persistent": true
  },
  "permissions": [ "tabs", "notifications", "storage"